Problem Set 1 – beforerr
…
    TimeArray(datetime, data[:, 4:4], header[4:4], meta)
end

println("Parsing AE data...")
ae_data = load_ae_data(ae_file)

println("Parsing Dst data...")
dst_data = load_dst_data(dst_file)

Parsing AE data...
Parsing Dst data...

744×1 TimeSeries.TimeArray{Any, 2, Dates.DateTime, Matrix{Any}} 2015-03-01T00:00:00 to 2015-03-31T23:00:00
┌─────────────────────┬───────┐
│                     │ DST   │
├─────────────────────┼───────┤
│ 2015-03-01T00:00:00 │ -34.0 │
│ 2015-03-01T01:00:00 │ -44.0 │
│ 2015-03-01T02:00:00 │ -30.0 │
│ 2015-03-01T03:00:00 │ -31.0 │
│ 2015-03-01T04:00:00 │ -28.0 │
│ 2015-03-01T05:00:00 │ -42.0 │
│ 2015-03-01T06:00:00 │ -55.0 │
│ 2015-03-01T07:00:00 │ -53.0 │
│          ⋮          │   ⋮   │
│ 2015-03-31T17:00:00 │   2.0 │
│ 2015-03-31T18:00:00 │  -7.0 │
│ 2015-03-31T19:00:00 │  -9.0 │
│ 2015-03-31T20:00:00 │ -10.0 │
│ 2015-03-31T21:00:00 │ -12.0 │
│ 2015-03-31T22:00:00 │ -12.0 │
│ 2015-03-31T23:00:00 │ -12.0 │
└─────────────────────┴───────┘
               729 rows omitted
…
# Notes
- 'start_time' and 'end_time': date format 'YYYY-MM-DDThh:mm:ss'
"""
function load_Kp_data(start_time, end_time, index=:Kp)
    url = "https://kp.gfz-potsdam.de/app/json/?start=$(start_time)Z&end=$(end_time)Z&index=$(index)"
    data = JSON3.read(download(url))
    datetime = DateTime.(data[:datetime], "yyyy-mm-ddTHH:MM:SSZ")
    TimeArray(datetime, Float64.(data[index]), [index], Dict("unit" => "", "label" => string(index)))
end

kp_data = load_Kp_data(start_time, end_time)

248×1 TimeSeries.TimeArray{Float64, 1, Dates.DateTime, Vector{Float64}} 2015-03-01T00:00:00 to 2015-03-31T21:00:00
┌─────────────────────┬───────┐
│                     │ Kp    │
├─────────────────────┼───────┤
│ 2015-03-01T00:00:00 │   5.0 │
│ 2015-03-01T03:00:00 │   5.0 │
│ 2015-03-01T06:00:00 │ 5.333 │
│ 2015-03-01T09:00:00 │ 3.667 │
│ 2015-03-01T12:00:00 │   2.0 │
│ 2015-03-01T15:00:00 │ 1.333 │
│ 2015-03-01T18:00:00 │ 2.333 │
│ 2015-03-01T21:00:00 │ 2.667 │
│          ⋮          │   ⋮   │
│ 2015-03-31T03:00:00 │ 0.667 │
│ 2015-03-31T06:00:00 │ 2.333 │
│ 2015-03-31T09:00:00 │ 2.333 │
│ 2015-03-31T12:00:00 │   3.0 │
│ 2015-03-31T15:00:00 │   3.0 │
│ 2015-03-31T18:00:00 │ 2.667 │
│ 2015-03-31T21:00:00 │   2.0 │
└─────────────────────┴───────┘
               233 rows omitted
…
