Problem Set 2 – beforerr
…
OMNI2_H0_MRG1HR = DataSet(
    "OMNI2_H0_MRG1HR",
    ["KP1800", "DST1800", "AE1800"]
)

timespan = ["2015-03-15", "2015-03-22"] # 7 days
omni_hro_ds = load_dataset(OMNI_HRO_1MIN, timespan) |> TimeArray
OMNI2_H0_MRG1HR_ds = load_dataset(OMNI2_H0_MRG1HR, timespan) |> TimeArray

Can't get OMNI2_H0_MRG1HR/KP1800 without web service, switching to web service
Can't get OMNI2_H0_MRG1HR/DST1800 without web service, switching to web service
Can't get OMNI2_H0_MRG1HR/AE1800 without web service, switching to web service

168×3 TimeSeries.TimeArray{Float64, 2, Dates.DateTime, Matrix{Float64}} 2015-03-15T00:30:00 to 2015-03-21T23:30:00
┌─────────────────────┬────────┬─────────┬────────┐
│                     │ KP1800 │ DST1800 │ AE1800 │
├─────────────────────┼────────┼─────────┼────────┤
│ 2015-03-15T00:30:00 │   20.0 │   -11.0 │  159.0 │
│ 2015-03-15T01:30:00 │   20.0 │   -11.0 │  147.0 │
│ 2015-03-15T02:30:00 │   20.0 │   -11.0 │  159.0 │
│ 2015-03-15T03:30:00 │   20.0 │   -12.0 │  170.0 │
│ 2015-03-15T04:30:00 │   20.0 │   -11.0 │  232.0 │
│ 2015-03-15T05:30:00 │   20.0 │   -11.0 │  235.0 │
│ 2015-03-15T06:30:00 │   27.0 │    -9.0 │  317.0 │
│ 2015-03-15T07:30:00 │   27.0 │    -9.0 │  446.0 │
│          ⋮          │   ⋮    │    ⋮    │   ⋮    │
│ 2015-03-21T17:30:00 │   17.0 │   -44.0 │  105.0 │
│ 2015-03-21T18:30:00 │   17.0 │   -44.0 │   84.0 │
│ 2015-03-21T19:30:00 │   17.0 │   -44.0 │   72.0 │
│ 2015-03-21T20:30:00 │   17.0 │   -47.0 │   68.0 │
│ 2015-03-21T21:30:00 │   13.0 │   -40.0 │   94.0 │
│ 2015-03-21T22:30:00 │   13.0 │   -43.0 │   55.0 │
│ 2015-03-21T23:30:00 │   13.0 │   -41.0 │   47.0 │
└─────────────────────┴────────┴─────────┴────────┘
                                   153 rows omitted
…
B_ts = omni_hro_ds[:BX_GSE, :BY_GSM, :BZ_GSM] .* u"nT"
V_ts = omni_hro_ds[:flow_speed] .* u"km/s"

Akasofu_epsilon_meta = Dict(
    "label" => "Akasofu Epsilon"
)
Akasofu_epsilon_ts = TimeArray(
    timestamp(omni_hro_ds),
    Akasofu_epsilon.(eachrow(values(B_ts)), values(V_ts)),
    [:ε],
    Akasofu_epsilon_meta
)

10080×1 TimeSeries.TimeArray{Unitful.Quantity{Float64, 𝐋² 𝐌 𝐓⁻³, Unitful.FreeUnits{(GW,), 𝐋² 𝐌 𝐓⁻³, nothing}}, 1, Dates.DateTime, Vector{Unitful.Quantity{Float64, 𝐋² 𝐌 𝐓⁻³, Unitful.FreeUnits{(GW,), 𝐋² 𝐌 𝐓⁻³, nothing}}}} 2015-03-15T00:00:00 to 2015-03-21T23:59:00
┌─────────────────────┬───────────────┐
│                     │ ε             │
├─────────────────────┼───────────────┤
│ 2015-03-15T00:00:00 │     53.202 GW │
│ 2015-03-15T00:01:00 │    59.3266 GW │
│ 2015-03-15T00:02:00 │    62.2223 GW │
│ 2015-03-15T00:03:00 │    66.7341 GW │
│ 2015-03-15T00:04:00 │    66.7664 GW │
│ 2015-03-15T00:05:00 │     64.882 GW │
│ 2015-03-15T00:06:00 │    67.7737 GW │
│ 2015-03-15T00:07:00 │    66.3617 GW │
│          ⋮          │       ⋮       │
│ 2015-03-21T23:53:00 │        NaN GW │
│ 2015-03-21T23:54:00 │        NaN GW │
│ 2015-03-21T23:55:00 │        NaN GW │
│ 2015-03-21T23:56:00 │ 0.00733769 GW │
│ 2015-03-21T23:57:00 │  0.0025041 GW │
│ 2015-03-21T23:58:00 │  0.0070985 GW │
│ 2015-03-21T23:59:00 │ 0.00196921 GW │
└─────────────────────┴───────────────┘
                     10065 rows omitted
…
Siscoe etal 1968, JGR found deltaDst = constant*(sqrt(P_after)-sqrt(P_before)) for after/before sudden impulse.
We use this here to correct Dst for SW dynamic pressure, relative to prestorm value (Dst=0, Pdyn=2nPa).

Code

function correct_Dst(dst, P_after, P_before)
    Siscoe_constant = 13.5u"nT/sqrt(nPa)"
    @. (dst - Siscoe_constant * (sqrt(P_after * u"nPa") - sqrt(P_before * u"nPa")))
end

omni_hro_symh = omni_hro_ds[:SYM_H] .* u"nT"
omni_Dst_corrected = correct_Dst(omni_hro_symh, omni_hro_ds[:Pressure], 2)

10080×1 TimeSeries.TimeArray{Unitful.Quantity{Float64, 𝐌 𝐈⁻¹ 𝐓⁻², Unitful.FreeUnits{(nT,), 𝐌 𝐈⁻¹ 𝐓⁻², nothing}}, 1, Dates.DateTime, Vector{Unitful.Quantity{Float64, 𝐌 𝐈⁻¹ 𝐓⁻², Unitful.FreeUnits{(nT,), 𝐌 𝐈⁻¹ 𝐓⁻², nothing}}}} 2015-03-15T00:00:00 to 2015-03-21T23:59:00
┌─────────────────────┬────────────────┐
│                     │ SYM_H_Pressure │
├─────────────────────┼────────────────┤
│ 2015-03-15T00:00:00 │    -3.42358 nT │
│ 2015-03-15T00:01:00 │    -5.36862 nT │
│ 2015-03-15T00:02:00 │    -3.73869 nT │
│ 2015-03-15T00:03:00 │     -3.9673 nT │
│ 2015-03-15T00:04:00 │    -3.53824 nT │
│ 2015-03-15T00:05:00 │    -3.13192 nT │
│ 2015-03-15T00:06:00 │    -2.88453 nT │
│ 2015-03-15T00:07:00 │    -2.84302 nT │
│          ⋮          │       ⋮        │
│ 2015-03-21T23:53:00 │         NaN nT │
│ 2015-03-21T23:54:00 │         NaN nT │
│ 2015-03-21T23:55:00 │         NaN nT │
│ 2015-03-21T23:56:00 │    -23.2479 nT │
│ 2015-03-21T23:57:00 │    -23.2479 nT │
│ 2015-03-21T23:58:00 │    -22.5591 nT │
│ 2015-03-21T23:59:00 │    -22.5591 nT │
└─────────────────────┴────────────────┘
                      10065 rows omitted
…
2.4 Electric field

Code

omni_mVBz = @. -V_ts * B_ts.BZ_GSM |> u"mV/m"

10080×1 TimeSeries.TimeArray{Unitful.Quantity{Float64, 𝐋 𝐌 𝐈⁻¹ 𝐓⁻³, Unitful.FreeUnits{(m⁻¹, mV), 𝐋 𝐌 𝐈⁻¹ 𝐓⁻³, nothing}}, 1, Dates.DateTime, Vector{Unitful.Quantity{Float64, 𝐋 𝐌 𝐈⁻¹ 𝐓⁻³, Unitful.FreeUnits{(m⁻¹, mV), 𝐋 𝐌 𝐈⁻¹ 𝐓⁻³, nothing}}}} 2015-03-15T00:00:00 to 2015-03-21T23:59:00
┌─────────────────────┬───────────────────┐
│                     │ flow_speed_BZ_GSM │
├─────────────────────┼───────────────────┤
│ 2015-03-15T00:00:00 │   0.342721 mV m⁻¹ │
│ 2015-03-15T00:01:00 │    0.65641 mV m⁻¹ │
│ 2015-03-15T00:02:00 │   0.711816 mV m⁻¹ │
│ 2015-03-15T00:03:00 │    0.72822 mV m⁻¹ │
│ 2015-03-15T00:04:00 │    0.74763 mV m⁻¹ │
│ 2015-03-15T00:05:00 │   0.718425 mV m⁻¹ │
│ 2015-03-15T00:06:00 │   0.750825 mV m⁻¹ │
│ 2015-03-15T00:07:00 │     0.7488 mV m⁻¹ │
│          ⋮          │         ⋮         │
│ 2015-03-21T23:53:00 │        NaN mV m⁻¹ │
│ 2015-03-21T23:54:00 │        NaN mV m⁻¹ │
│ 2015-03-21T23:55:00 │        NaN mV m⁻¹ │
│ 2015-03-21T23:56:00 │   -6.13815 mV m⁻¹ │
│ 2015-03-21T23:57:00 │   -6.17108 mV m⁻¹ │
│ 2015-03-21T23:58:00 │   -6.22842 mV m⁻¹ │
│ 2015-03-21T23:59:00 │   -6.19553 mV m⁻¹ │
└─────────────────────┴───────────────────┘
                         10065 rows omitted
…
Uin = integrate(Akasofu_epsilon_ts)
Uout = integrate(Wmd_all_ts)
rename!(Uout, :Uout)

6338×1 TimeSeries.TimeArray{Unitful.Quantity{Float64, 𝐋² 𝐌 𝐓⁻², Unitful.FreeUnits{(PJ,), 𝐋² 𝐌 𝐓⁻², nothing}}, 1, Dates.DateTime, Vector{Unitful.Quantity{Float64, 𝐋² 𝐌 𝐓⁻², Unitful.FreeUnits{(PJ,), 𝐋² 𝐌 𝐓⁻², nothing}}}} 2015-03-15T00:02:00 to 2015-03-21T23:59:00
┌─────────────────────┬──────────────┐
│                     │ Uout         │
├─────────────────────┼──────────────┤
│ 2015-03-15T00:02:00 │ 0.0863126 PJ │
│ 2015-03-15T00:03:00 │  0.028522 PJ │
│ 2015-03-15T00:04:00 │ 0.0449733 PJ │
│ 2015-03-15T00:05:00 │ 0.0346158 PJ │
│ 2015-03-15T00:06:00 │  0.024771 PJ │
│ 2015-03-15T00:07:00 │ 0.0211541 PJ │
│ 2015-03-15T00:08:00 │ 0.0256013 PJ │
│ 2015-03-15T00:09:00 │ 0.0127587 PJ │
│          ⋮          │      ⋮       │
│ 2015-03-21T23:48:00 │   267.107 PJ │
│ 2015-03-21T23:49:00 │    267.11 PJ │
│ 2015-03-21T23:50:00 │   267.073 PJ │
│ 2015-03-21T23:51:00 │    267.09 PJ │
│ 2015-03-21T23:57:00 │   267.109 PJ │
│ 2015-03-21T23:58:00 │   267.112 PJ │
│ 2015-03-21T23:59:00 │   267.088 PJ │
└─────────────────────┴──────────────┘
                     6323 rows omitted
…
